{
  "reservation": {
    "locator": "SVR9FV",
    "journeys": [
      {
        "journey": {
          "departure": "YUL",
          "arrival": "YQM",
          "departureTime": "2020-10-12 09:30:00"
        },
        "id": "YUL-YQM",
        "legsAvailableForBoardingPass": [],
        "segments": [
          {
            "departure": "YUL",
            "arrival": "YQM"
          }
        ],
        "passengers": [],
        "generatable": null
      },
      {
        "journey": {
          "departure": "YQM",
          "arrival": "YUL",
          "departureTime": "2020-10-13 04:00:00"
        },
        "id": "YQM-YUL",
        "legsAvailableForBoardingPass": [
          {
            "departure": "YQM",
            "arrival": "YHZ"
          },
          {
            "departure": "YHZ",
            "arrival": "YUL"
          }
        ],
        "segments": [
          {
            "departure": "YQM",
            "arrival": "YUL"
          }
        ],
        "passengers": [
          {
            "lastName": "WATCHORN",
            "firstName": "CESAR",
            "middleName": "",
            "title": "Mr",
            "gender": "Male",
            "address": {
              "address1": "",
              "address2": "",
              "city": "",
              "location": null,
              "postalCode": ""
            },
            "birthDate": "2000-12-12",
            "nationCountry": null,
            "personalContactInformation": {
              "phoneNumber": "5555555555",
              "mobileNumber": "5555555555",
              "email": "smccrumb@intelisysaviation.com"
            },
            "businessContactInformation": {
              "phoneNumber": "",
              "faxNumber": "",
              "extension": ""
            },
            "destinationContactInformation": null,
            "passport": null,
            "loyaltyProgram": null,
            "preBoard": false,
            "status": {
              "active": true,
              "inactive": false,
              "denied": false
            },
            "reference1": "",
            "reference2": "",
            "notes": ""
          }
        ],
        "generatable": 0
      }
    ]
  }
}